%YAML 1.1
%TAG !u! tag:unity3d.com,2011:
--- !u!114 &11400000
MonoBehaviour:
  m_ObjectHideFlags: 0
  m_CorrespondingSourceObject: {fileID: 0}
  m_PrefabInstance: {fileID: 0}
  m_PrefabAsset: {fileID: 0}
  m_GameObject: {fileID: 0}
  m_Enabled: 1
  m_EditorHideFlags: 0
  m_Script: {fileID: 11500000, guid: 9898f0ebced24e59acc923ba70d5e8e2, type: 3}
  m_Name: support_lv4_a
  m_EditorClassIdentifier: 
  enumValue: {fileID: 11400000, guid: b6ee33f85e4fe6a48b901fa9fa3b04c9, type: 2}
  towerPrefab: {fileID: 3677258560958360516, guid: 1d5eff50ccf075942bdcf39ad1936852, type: 3}
  displayName: support_lv4_a
  description:
  - Line 1
  - Line 2
  - Line 3
  forSell: 0
  price: 230
  upgradeTowers:
  - {fileID: 11400000, guid: 8eb69bab078ae154e9eecf0418318cac, type: 2}
