%YAML 1.1
%TAG !u! tag:unity3d.com,2011:
--- !u!114 &11400000
MonoBehaviour:
  m_ObjectHideFlags: 0
  m_CorrespondingSourceObject: {fileID: 0}
  m_PrefabInstance: {fileID: 0}
  m_PrefabAsset: {fileID: 0}
  m_GameObject: {fileID: 0}
  m_Enabled: 1
  m_EditorHideFlags: 0
  m_Script: {fileID: 11500000, guid: 9898f0ebced24e59acc923ba70d5e8e2, type: 3}
  m_Name: recon_lv1
  m_EditorClassIdentifier: 
  enumValue: {fileID: 11400000, guid: 960571eeace4bc647b5da206d7fd1a15, type: 2}
  towerPrefab: {fileID: 3677258560958360516, guid: 8ec390be8f722604c8b9ebe4528c3da1, type: 3}
  displayName: recon_lv1
  description:
  - Line 1
  - Line 2
  - Line 3
  forSell: 0
  price: 100
  instantBuild: 0
  upgradeTowers:
  - {fileID: 11400000, guid: 13d8d6f91b9ec184ba746f44ca2ceb8d, type: 2}
  - {fileID: 11400000, guid: ed5b18449e9ddaa4a8fe74f9ffecfa56, type: 2}
