%YAML 1.1
%TAG !u! tag:unity3d.com,2011:
--- !u!114 &11400000
MonoBehaviour:
  m_ObjectHideFlags: 0
  m_CorrespondingSourceObject: {fileID: 0}
  m_PrefabInstance: {fileID: 0}
  m_PrefabAsset: {fileID: 0}
  m_GameObject: {fileID: 0}
  m_Enabled: 1
  m_EditorHideFlags: 0
  m_Script: {fileID: 11500000, guid: 9898f0ebced24e59acc923ba70d5e8e2, type: 3}
  m_Name: engineer_lv2
  m_EditorClassIdentifier: 
  enumValue: {fileID: 11400000, guid: 3efce14157432774bbb6946e41ec2d74, type: 2}
  towerPrefab: {fileID: 3677258560958360516, guid: ad56ceddab37d194dbd5e9f759518a7c, type: 3}
  displayName: engineer_lv2
  description:
  - Line 1
  - Line 2
  - Line 3
  forSell: 0
  price: 220
  upgradeTowers:
  - {fileID: 11400000, guid: 30c3306cb353b8844a082ed66186548c, type: 2}
  - {fileID: 11400000, guid: 484580e95f613094b83a85dc865675b1, type: 2}
