%YAML 1.1
%TAG !u! tag:unity3d.com,2011:
--- !u!114 &11400000
MonoBehaviour:
  m_ObjectHideFlags: 0
  m_CorrespondingSourceObject: {fileID: 0}
  m_PrefabInstance: {fileID: 0}
  m_PrefabAsset: {fileID: 0}
  m_GameObject: {fileID: 0}
  m_Enabled: 1
  m_EditorHideFlags: 0
  m_Script: {fileID: 11500000, guid: 9898f0ebced24e59acc923ba70d5e8e2, type: 3}
  m_Name: engineer_lv4_b
  m_EditorClassIdentifier: 
  enumValue: {fileID: 11400000, guid: 595edc1f32470e443826bcb8ae30179f, type: 2}
  towerPrefab: {fileID: 3677258560958360516, guid: 1f45bcaf803232241a0a6a767e5a2121, type: 3}
  displayName: engineer_lv4_b
  description:
  - Line 1
  - Line 2
  - Line 3
  forSell: 0
  price: 375
  upgradeTowers:
  - {fileID: 11400000, guid: 9f4ca62d840564e4d95c37479d5d429e, type: 2}
