%YAML 1.1
%TAG !u! tag:unity3d.com,2011:
--- !u!114 &11400000
MonoBehaviour:
  m_ObjectHideFlags: 0
  m_CorrespondingSourceObject: {fileID: 0}
  m_PrefabInstance: {fileID: 0}
  m_PrefabAsset: {fileID: 0}
  m_GameObject: {fileID: 0}
  m_Enabled: 1
  m_EditorHideFlags: 0
  m_Script: {fileID: 11500000, guid: cb81a1b143444b939d682ba50855b4c8, type: 3}
  m_Name: weapon_shotgun_siaga
  m_EditorClassIdentifier: 
  enumValue: {fileID: 11400000, guid: 53cacf0b78b8f454a942d8a90434156a, type: 2}
  weaponType: 0
  projectileType: 1
  displayName: SIAGA
  description:
  - Line 1
  - Line 2
  isAuto: 0
  minDamage: 1
  maxDamage: 5
  speed: 80
  fireRate: 0.13
  maxAmmo: 10
  reloadTime: 3
  range: 10
  price: 10
