%YAML 1.1
%TAG !u! tag:unity3d.com,2011:
--- !u!114 &11400000
MonoBehaviour:
  m_ObjectHideFlags: 0
  m_CorrespondingSourceObject: {fileID: 0}
  m_PrefabInstance: {fileID: 0}
  m_PrefabAsset: {fileID: 0}
  m_GameObject: {fileID: 0}
  m_Enabled: 1
  m_EditorHideFlags: 0
  m_Script: {fileID: 11500000, guid: cb81a1b143444b939d682ba50855b4c8, type: 3}
  m_Name: weapon_rifle_scar
  m_EditorClassIdentifier: 
  enumValue: {fileID: 11400000, guid: 6601773d7643d8e449f7fa81bcab4000, type: 2}
  weaponType: 0
  projectileType: 0
  displayName: SCAR
  description:
  - Line 1
  - Line 2
  isAuto: 1
  minDamage: 1
  maxDamage: 3.5
  speed: 80
  fireRate: 0.15
  maxAmmo: 20
  reloadTime: 3
  range: 10
  price: 10
