%YAML 1.1
%TAG !u! tag:unity3d.com,2011:
--- !u!1 &4144019977722065817
GameObject:
  m_ObjectHideFlags: 0
  m_CorrespondingSourceObject: {fileID: 0}
  m_PrefabInstance: {fileID: 0}
  m_PrefabAsset: {fileID: 0}
  serializedVersion: 6
  m_Component:
  - component: {fileID: 3530984879728075692}
  - component: {fileID: 7708258483452684477}
  m_Layer: 0
  m_Name: EntityInstance
  m_TagString: Untagged
  m_Icon: {fileID: 0}
  m_NavMeshLayer: 0
  m_StaticEditorFlags: 0
  m_IsActive: 1
--- !u!4 &3530984879728075692
Transform:
  m_ObjectHideFlags: 0
  m_CorrespondingSourceObject: {fileID: 0}
  m_PrefabInstance: {fileID: 0}
  m_PrefabAsset: {fileID: 0}
  m_GameObject: {fileID: 4144019977722065817}
  m_LocalRotation: {x: 0, y: 0, z: 0, w: 1}
  m_LocalPosition: {x: 0, y: 0, z: 0}
  m_LocalScale: {x: 1, y: 1, z: 1}
  m_Children: []
  m_Father: {fileID: 0}
  m_RootOrder: 0
  m_LocalEulerAnglesHint: {x: 0, y: 0, z: 0}
--- !u!114 &7708258483452684477
MonoBehaviour:
  m_ObjectHideFlags: 0
  m_CorrespondingSourceObject: {fileID: 0}
  m_PrefabInstance: {fileID: 0}
  m_PrefabAsset: {fileID: 0}
  m_GameObject: {fileID: 4144019977722065817}
  m_Enabled: 1
  m_EditorHideFlags: 0
  m_Script: {fileID: 11500000, guid: 58c47086609249f296419ed83ae60df8, type: 3}
  m_Name: 
  m_EditorClassIdentifier: 
  entities:
  - {fileID: 677710346918495978, guid: df8045d250a9052419a097de89851273, type: 3}
  - {fileID: 3835457516572025075, guid: cdea03f86a5abe84697a08cb69f76374, type: 3}
  - {fileID: 3835457516572025075, guid: 128b3b76045de364090048de1d5559ed, type: 3}
  - {fileID: 3835457516572025075, guid: 6c1e759eeada37f449e2ff52f657598f, type: 3}
  - {fileID: 3835457516572025075, guid: cc2df6323b2f7f74bb4af0563b9175b7, type: 3}
  - {fileID: 8299274903884375738, guid: 14fdbcca81002a040b19b1fa588e584a, type: 3}
