%YAML 1.1
%TAG !u! tag:unity3d.com,2011:
--- !u!1001 &1284454498758630364
PrefabInstance:
  m_ObjectHideFlags: 0
  serializedVersion: 2
  m_Modification:
    m_TransformParent: {fileID: 0}
    m_Modifications:
    - target: {fileID: 566275600253179940, guid: a05f6e98cef73254db433d86552c2b58, type: 3}
      propertyPath: m_Name
      value: zombie_2
      objectReference: {fileID: 0}
    - target: {fileID: 566275600253179943, guid: a05f6e98cef73254db433d86552c2b58, type: 3}
      propertyPath: m_RootOrder
      value: 0
      objectReference: {fileID: 0}
    - target: {fileID: 566275600253179943, guid: a05f6e98cef73254db433d86552c2b58, type: 3}
      propertyPath: m_LocalPosition.x
      value: 0
      objectReference: {fileID: 0}
    - target: {fileID: 566275600253179943, guid: a05f6e98cef73254db433d86552c2b58, type: 3}
      propertyPath: m_LocalPosition.y
      value: 0
      objectReference: {fileID: 0}
    - target: {fileID: 566275600253179943, guid: a05f6e98cef73254db433d86552c2b58, type: 3}
      propertyPath: m_LocalPosition.z
      value: 0
      objectReference: {fileID: 0}
    - target: {fileID: 566275600253179943, guid: a05f6e98cef73254db433d86552c2b58, type: 3}
      propertyPath: m_LocalRotation.w
      value: 1
      objectReference: {fileID: 0}
    - target: {fileID: 566275600253179943, guid: a05f6e98cef73254db433d86552c2b58, type: 3}
      propertyPath: m_LocalRotation.x
      value: 0
      objectReference: {fileID: 0}
    - target: {fileID: 566275600253179943, guid: a05f6e98cef73254db433d86552c2b58, type: 3}
      propertyPath: m_LocalRotation.y
      value: 0
      objectReference: {fileID: 0}
    - target: {fileID: 566275600253179943, guid: a05f6e98cef73254db433d86552c2b58, type: 3}
      propertyPath: m_LocalRotation.z
      value: 0
      objectReference: {fileID: 0}
    - target: {fileID: 566275600253179943, guid: a05f6e98cef73254db433d86552c2b58, type: 3}
      propertyPath: m_LocalEulerAnglesHint.x
      value: 0
      objectReference: {fileID: 0}
    - target: {fileID: 566275600253179943, guid: a05f6e98cef73254db433d86552c2b58, type: 3}
      propertyPath: m_LocalEulerAnglesHint.y
      value: 0
      objectReference: {fileID: 0}
    - target: {fileID: 566275600253179943, guid: a05f6e98cef73254db433d86552c2b58, type: 3}
      propertyPath: m_LocalEulerAnglesHint.z
      value: 0
      objectReference: {fileID: 0}
    - target: {fileID: 5608707136811176113, guid: a05f6e98cef73254db433d86552c2b58, type: 3}
      propertyPath: m_Materials.Array.data[0]
      value: 
      objectReference: {fileID: 2100000, guid: 27ce1bef34cad8644bff160ff95a4de0, type: 2}
    m_RemovedComponents: []
  m_SourcePrefab: {fileID: 100100000, guid: a05f6e98cef73254db433d86552c2b58, type: 3}
