%YAML 1.1
%TAG !u! tag:unity3d.com,2011:
--- !u!1001 &1086395987450244183
PrefabInstance:
  m_ObjectHideFlags: 0
  serializedVersion: 2
  m_Modification:
    m_TransformParent: {fileID: 0}
    m_Modifications:
    - target: {fileID: 1856261472192598470, guid: 1d6bc042df1639a44ba9118fd813e7ed, type: 3}
      propertyPath: m_LocalPosition.y
      value: 0.967
      objectReference: {fileID: 0}
    - target: {fileID: 1856261472192598470, guid: 1d6bc042df1639a44ba9118fd813e7ed, type: 3}
      propertyPath: m_LocalPosition.z
      value: 0.941
      objectReference: {fileID: 0}
    - target: {fileID: 3049108264534397291, guid: 1d6bc042df1639a44ba9118fd813e7ed, type: 3}
      propertyPath: m_IsKinematic
      value: 0
      objectReference: {fileID: 0}
    - target: {fileID: 4191143914712927385, guid: 1d6bc042df1639a44ba9118fd813e7ed, type: 3}
      propertyPath: animator
      value: 
      objectReference: {fileID: 6277466772445360183}
    - target: {fileID: 4191143914712927395, guid: 1d6bc042df1639a44ba9118fd813e7ed, type: 3}
      propertyPath: m_Name
      value: mob_monster_zombie_dog
      objectReference: {fileID: 0}
    - target: {fileID: 4191143914712927396, guid: 1d6bc042df1639a44ba9118fd813e7ed, type: 3}
      propertyPath: armorType
      value: 1
      objectReference: {fileID: 0}
    - target: {fileID: 4191143914712927396, guid: 1d6bc042df1639a44ba9118fd813e7ed, type: 3}
      propertyPath: maxAttack
      value: 3
      objectReference: {fileID: 0}
    - target: {fileID: 4191143914712927396, guid: 1d6bc042df1639a44ba9118fd813e7ed, type: 3}
      propertyPath: maxHealth
      value: 25
      objectReference: {fileID: 0}
    - target: {fileID: 4191143914712927396, guid: 1d6bc042df1639a44ba9118fd813e7ed, type: 3}
      propertyPath: entityType
      value: 3
      objectReference: {fileID: 0}
    - target: {fileID: 4191143914712927397, guid: 1d6bc042df1639a44ba9118fd813e7ed, type: 3}
      propertyPath: m_Speed
      value: 4
      objectReference: {fileID: 0}
    - target: {fileID: 4191143914712927397, guid: 1d6bc042df1639a44ba9118fd813e7ed, type: 3}
      propertyPath: m_Height
      value: 1
      objectReference: {fileID: 0}
    - target: {fileID: 4191143914712927398, guid: 1d6bc042df1639a44ba9118fd813e7ed, type: 3}
      propertyPath: m_Size.x
      value: 0.7136713
      objectReference: {fileID: 0}
    - target: {fileID: 4191143914712927398, guid: 1d6bc042df1639a44ba9118fd813e7ed, type: 3}
      propertyPath: m_Size.y
      value: 1.3713299
      objectReference: {fileID: 0}
    - target: {fileID: 4191143914712927398, guid: 1d6bc042df1639a44ba9118fd813e7ed, type: 3}
      propertyPath: m_Center.x
      value: 0
      objectReference: {fileID: 0}
    - target: {fileID: 4191143914712927398, guid: 1d6bc042df1639a44ba9118fd813e7ed, type: 3}
      propertyPath: m_Center.y
      value: 0.68566495
      objectReference: {fileID: 0}
    - target: {fileID: 4191143914712927399, guid: 1d6bc042df1639a44ba9118fd813e7ed, type: 3}
      propertyPath: m_RootOrder
      value: 0
      objectReference: {fileID: 0}
    - target: {fileID: 4191143914712927399, guid: 1d6bc042df1639a44ba9118fd813e7ed, type: 3}
      propertyPath: m_LocalPosition.x
      value: 4
      objectReference: {fileID: 0}
    - target: {fileID: 4191143914712927399, guid: 1d6bc042df1639a44ba9118fd813e7ed, type: 3}
      propertyPath: m_LocalPosition.y
      value: 0
      objectReference: {fileID: 0}
    - target: {fileID: 4191143914712927399, guid: 1d6bc042df1639a44ba9118fd813e7ed, type: 3}
      propertyPath: m_LocalPosition.z
      value: 0
      objectReference: {fileID: 0}
    - target: {fileID: 4191143914712927399, guid: 1d6bc042df1639a44ba9118fd813e7ed, type: 3}
      propertyPath: m_LocalRotation.w
      value: 1
      objectReference: {fileID: 0}
    - target: {fileID: 4191143914712927399, guid: 1d6bc042df1639a44ba9118fd813e7ed, type: 3}
      propertyPath: m_LocalRotation.x
      value: 0
      objectReference: {fileID: 0}
    - target: {fileID: 4191143914712927399, guid: 1d6bc042df1639a44ba9118fd813e7ed, type: 3}
      propertyPath: m_LocalRotation.y
      value: 0
      objectReference: {fileID: 0}
    - target: {fileID: 4191143914712927399, guid: 1d6bc042df1639a44ba9118fd813e7ed, type: 3}
      propertyPath: m_LocalRotation.z
      value: 0
      objectReference: {fileID: 0}
    - target: {fileID: 4191143914712927399, guid: 1d6bc042df1639a44ba9118fd813e7ed, type: 3}
      propertyPath: m_LocalEulerAnglesHint.x
      value: 0
      objectReference: {fileID: 0}
    - target: {fileID: 4191143914712927399, guid: 1d6bc042df1639a44ba9118fd813e7ed, type: 3}
      propertyPath: m_LocalEulerAnglesHint.y
      value: 0
      objectReference: {fileID: 0}
    - target: {fileID: 4191143914712927399, guid: 1d6bc042df1639a44ba9118fd813e7ed, type: 3}
      propertyPath: m_LocalEulerAnglesHint.z
      value: 0
      objectReference: {fileID: 0}
    - target: {fileID: 4191143914988864888, guid: 1d6bc042df1639a44ba9118fd813e7ed, type: 3}
      propertyPath: m_Materials.Array.data[0]
      value: 
      objectReference: {fileID: 2100000, guid: d2996ab0e0a52ef4b8f29cf5a818efe4, type: 2}
    - target: {fileID: 4191143914988864889, guid: 1d6bc042df1639a44ba9118fd813e7ed, type: 3}
      propertyPath: m_LocalScale.z
      value: 1.3003
      objectReference: {fileID: 0}
    - target: {fileID: 4191143914988864889, guid: 1d6bc042df1639a44ba9118fd813e7ed, type: 3}
      propertyPath: m_LocalPosition.y
      value: 0.386
      objectReference: {fileID: 0}
    - target: {fileID: 4191143914988864889, guid: 1d6bc042df1639a44ba9118fd813e7ed, type: 3}
      propertyPath: m_LocalPosition.z
      value: -0.020661
      objectReference: {fileID: 0}
    - target: {fileID: 4191143914988864902, guid: 1d6bc042df1639a44ba9118fd813e7ed, type: 3}
      propertyPath: m_IsActive
      value: 0
      objectReference: {fileID: 0}
    - target: {fileID: 4191143915255525461, guid: 1d6bc042df1639a44ba9118fd813e7ed, type: 3}
      propertyPath: m_Materials.Array.data[0]
      value: 
      objectReference: {fileID: 2100000, guid: d2996ab0e0a52ef4b8f29cf5a818efe4, type: 2}
    - target: {fileID: 4191143915447831117, guid: 1d6bc042df1639a44ba9118fd813e7ed, type: 3}
      propertyPath: m_IsActive
      value: 0
      objectReference: {fileID: 0}
    m_RemovedComponents: []
  m_SourcePrefab: {fileID: 100100000, guid: 1d6bc042df1639a44ba9118fd813e7ed, type: 3}
--- !u!4 &3835457516572025072 stripped
Transform:
  m_CorrespondingSourceObject: {fileID: 4191143914712927399, guid: 1d6bc042df1639a44ba9118fd813e7ed, type: 3}
  m_PrefabInstance: {fileID: 1086395987450244183}
  m_PrefabAsset: {fileID: 0}
--- !u!1001 &2580450966998549353
PrefabInstance:
  m_ObjectHideFlags: 0
  serializedVersion: 2
  m_Modification:
    m_TransformParent: {fileID: 3835457516572025072}
    m_Modifications:
    - target: {fileID: 4664291358534231697, guid: a34703961614de6418ff5b4401cb6d11, type: 3}
      propertyPath: m_RootOrder
      value: 1
      objectReference: {fileID: 0}
    - target: {fileID: 4664291358534231697, guid: a34703961614de6418ff5b4401cb6d11, type: 3}
      propertyPath: m_LocalScale.x
      value: 0.9
      objectReference: {fileID: 0}
    - target: {fileID: 4664291358534231697, guid: a34703961614de6418ff5b4401cb6d11, type: 3}
      propertyPath: m_LocalScale.y
      value: 0.9
      objectReference: {fileID: 0}
    - target: {fileID: 4664291358534231697, guid: a34703961614de6418ff5b4401cb6d11, type: 3}
      propertyPath: m_LocalScale.z
      value: 0.9
      objectReference: {fileID: 0}
    - target: {fileID: 4664291358534231697, guid: a34703961614de6418ff5b4401cb6d11, type: 3}
      propertyPath: m_LocalPosition.x
      value: 0
      objectReference: {fileID: 0}
    - target: {fileID: 4664291358534231697, guid: a34703961614de6418ff5b4401cb6d11, type: 3}
      propertyPath: m_LocalPosition.y
      value: 0
      objectReference: {fileID: 0}
    - target: {fileID: 4664291358534231697, guid: a34703961614de6418ff5b4401cb6d11, type: 3}
      propertyPath: m_LocalPosition.z
      value: 0
      objectReference: {fileID: 0}
    - target: {fileID: 4664291358534231697, guid: a34703961614de6418ff5b4401cb6d11, type: 3}
      propertyPath: m_LocalRotation.w
      value: 1
      objectReference: {fileID: 0}
    - target: {fileID: 4664291358534231697, guid: a34703961614de6418ff5b4401cb6d11, type: 3}
      propertyPath: m_LocalRotation.x
      value: 0
      objectReference: {fileID: 0}
    - target: {fileID: 4664291358534231697, guid: a34703961614de6418ff5b4401cb6d11, type: 3}
      propertyPath: m_LocalRotation.y
      value: 0
      objectReference: {fileID: 0}
    - target: {fileID: 4664291358534231697, guid: a34703961614de6418ff5b4401cb6d11, type: 3}
      propertyPath: m_LocalRotation.z
      value: 0
      objectReference: {fileID: 0}
    - target: {fileID: 4664291358534231697, guid: a34703961614de6418ff5b4401cb6d11, type: 3}
      propertyPath: m_LocalEulerAnglesHint.x
      value: 0
      objectReference: {fileID: 0}
    - target: {fileID: 4664291358534231697, guid: a34703961614de6418ff5b4401cb6d11, type: 3}
      propertyPath: m_LocalEulerAnglesHint.y
      value: 0
      objectReference: {fileID: 0}
    - target: {fileID: 4664291358534231697, guid: a34703961614de6418ff5b4401cb6d11, type: 3}
      propertyPath: m_LocalEulerAnglesHint.z
      value: 0
      objectReference: {fileID: 0}
    - target: {fileID: 6500546691508917738, guid: a34703961614de6418ff5b4401cb6d11, type: 3}
      propertyPath: m_Name
      value: zombie_dog_prefab
      objectReference: {fileID: 0}
    m_RemovedComponents: []
  m_SourcePrefab: {fileID: 100100000, guid: a34703961614de6418ff5b4401cb6d11, type: 3}
--- !u!95 &6277466772445360183 stripped
Animator:
  m_CorrespondingSourceObject: {fileID: 8417668327281750878, guid: a34703961614de6418ff5b4401cb6d11, type: 3}
  m_PrefabInstance: {fileID: 2580450966998549353}
  m_PrefabAsset: {fileID: 0}
