%YAML 1.1
%TAG !u! tag:unity3d.com,2011:
--- !u!1001 &1086395987450244183
PrefabInstance:
  m_ObjectHideFlags: 0
  serializedVersion: 2
  m_Modification:
    m_TransformParent: {fileID: 0}
    m_Modifications:
    - target: {fileID: 1856261472192598470, guid: 1d6bc042df1639a44ba9118fd813e7ed, type: 3}
      propertyPath: m_LocalPosition.y
      value: 1.881
      objectReference: {fileID: 0}
    - target: {fileID: 4191143914712927385, guid: 1d6bc042df1639a44ba9118fd813e7ed, type: 3}
      propertyPath: animator
      value: 
      objectReference: {fileID: 1776323471942067130}
    - target: {fileID: 4191143914712927395, guid: 1d6bc042df1639a44ba9118fd813e7ed, type: 3}
      propertyPath: m_Name
      value: mob_monster_zombie_giant
      objectReference: {fileID: 0}
    - target: {fileID: 4191143914712927396, guid: 1d6bc042df1639a44ba9118fd813e7ed, type: 3}
      propertyPath: armorType
      value: 3
      objectReference: {fileID: 0}
    - target: {fileID: 4191143914712927396, guid: 1d6bc042df1639a44ba9118fd813e7ed, type: 3}
      propertyPath: maxAttack
      value: 30
      objectReference: {fileID: 0}
    - target: {fileID: 4191143914712927396, guid: 1d6bc042df1639a44ba9118fd813e7ed, type: 3}
      propertyPath: maxHealth
      value: 280
      objectReference: {fileID: 0}
    - target: {fileID: 4191143914712927396, guid: 1d6bc042df1639a44ba9118fd813e7ed, type: 3}
      propertyPath: minAttack
      value: 15
      objectReference: {fileID: 0}
    - target: {fileID: 4191143914712927396, guid: 1d6bc042df1639a44ba9118fd813e7ed, type: 3}
      propertyPath: entityType
      value: 5
      objectReference: {fileID: 0}
    - target: {fileID: 4191143914712927397, guid: 1d6bc042df1639a44ba9118fd813e7ed, type: 3}
      propertyPath: m_Speed
      value: 1.5
      objectReference: {fileID: 0}
    - target: {fileID: 4191143914712927398, guid: 1d6bc042df1639a44ba9118fd813e7ed, type: 3}
      propertyPath: m_Size.y
      value: 2.8599172
      objectReference: {fileID: 0}
    - target: {fileID: 4191143914712927398, guid: 1d6bc042df1639a44ba9118fd813e7ed, type: 3}
      propertyPath: m_Center.y
      value: 1.4299586
      objectReference: {fileID: 0}
    - target: {fileID: 4191143914712927399, guid: 1d6bc042df1639a44ba9118fd813e7ed, type: 3}
      propertyPath: m_RootOrder
      value: 0
      objectReference: {fileID: 0}
    - target: {fileID: 4191143914712927399, guid: 1d6bc042df1639a44ba9118fd813e7ed, type: 3}
      propertyPath: m_LocalScale.x
      value: 1
      objectReference: {fileID: 0}
    - target: {fileID: 4191143914712927399, guid: 1d6bc042df1639a44ba9118fd813e7ed, type: 3}
      propertyPath: m_LocalScale.z
      value: 1
      objectReference: {fileID: 0}
    - target: {fileID: 4191143914712927399, guid: 1d6bc042df1639a44ba9118fd813e7ed, type: 3}
      propertyPath: m_LocalPosition.x
      value: 4
      objectReference: {fileID: 0}
    - target: {fileID: 4191143914712927399, guid: 1d6bc042df1639a44ba9118fd813e7ed, type: 3}
      propertyPath: m_LocalPosition.y
      value: 0
      objectReference: {fileID: 0}
    - target: {fileID: 4191143914712927399, guid: 1d6bc042df1639a44ba9118fd813e7ed, type: 3}
      propertyPath: m_LocalPosition.z
      value: -0.02642
      objectReference: {fileID: 0}
    - target: {fileID: 4191143914712927399, guid: 1d6bc042df1639a44ba9118fd813e7ed, type: 3}
      propertyPath: m_LocalRotation.w
      value: 1
      objectReference: {fileID: 0}
    - target: {fileID: 4191143914712927399, guid: 1d6bc042df1639a44ba9118fd813e7ed, type: 3}
      propertyPath: m_LocalRotation.x
      value: 0
      objectReference: {fileID: 0}
    - target: {fileID: 4191143914712927399, guid: 1d6bc042df1639a44ba9118fd813e7ed, type: 3}
      propertyPath: m_LocalRotation.y
      value: 0
      objectReference: {fileID: 0}
    - target: {fileID: 4191143914712927399, guid: 1d6bc042df1639a44ba9118fd813e7ed, type: 3}
      propertyPath: m_LocalRotation.z
      value: 0
      objectReference: {fileID: 0}
    - target: {fileID: 4191143914712927399, guid: 1d6bc042df1639a44ba9118fd813e7ed, type: 3}
      propertyPath: m_LocalEulerAnglesHint.x
      value: 0
      objectReference: {fileID: 0}
    - target: {fileID: 4191143914712927399, guid: 1d6bc042df1639a44ba9118fd813e7ed, type: 3}
      propertyPath: m_LocalEulerAnglesHint.y
      value: 0
      objectReference: {fileID: 0}
    - target: {fileID: 4191143914712927399, guid: 1d6bc042df1639a44ba9118fd813e7ed, type: 3}
      propertyPath: m_LocalEulerAnglesHint.z
      value: 0
      objectReference: {fileID: 0}
    - target: {fileID: 4191143914988864888, guid: 1d6bc042df1639a44ba9118fd813e7ed, type: 3}
      propertyPath: m_Materials.Array.data[0]
      value: 
      objectReference: {fileID: 2100000, guid: fcce65cd2ef597844aea4ee4568d9e66, type: 2}
    - target: {fileID: 4191143914988864889, guid: 1d6bc042df1639a44ba9118fd813e7ed, type: 3}
      propertyPath: m_LocalScale.x
      value: 1.3826
      objectReference: {fileID: 0}
    - target: {fileID: 4191143914988864889, guid: 1d6bc042df1639a44ba9118fd813e7ed, type: 3}
      propertyPath: m_LocalScale.y
      value: 1.3826
      objectReference: {fileID: 0}
    - target: {fileID: 4191143914988864889, guid: 1d6bc042df1639a44ba9118fd813e7ed, type: 3}
      propertyPath: m_LocalScale.z
      value: 1.3826
      objectReference: {fileID: 0}
    - target: {fileID: 4191143914988864889, guid: 1d6bc042df1639a44ba9118fd813e7ed, type: 3}
      propertyPath: m_LocalPosition.y
      value: 2.346
      objectReference: {fileID: 0}
    - target: {fileID: 4191143914988864889, guid: 1d6bc042df1639a44ba9118fd813e7ed, type: 3}
      propertyPath: m_LocalPosition.z
      value: -0.026321
      objectReference: {fileID: 0}
    - target: {fileID: 4191143914988864902, guid: 1d6bc042df1639a44ba9118fd813e7ed, type: 3}
      propertyPath: m_IsActive
      value: 0
      objectReference: {fileID: 0}
    - target: {fileID: 4191143915255525461, guid: 1d6bc042df1639a44ba9118fd813e7ed, type: 3}
      propertyPath: m_Materials.Array.data[0]
      value: 
      objectReference: {fileID: 2100000, guid: fcce65cd2ef597844aea4ee4568d9e66, type: 2}
    - target: {fileID: 4191143915447831116, guid: 1d6bc042df1639a44ba9118fd813e7ed, type: 3}
      propertyPath: m_LocalScale.x
      value: 1.0234975
      objectReference: {fileID: 0}
    - target: {fileID: 4191143915447831116, guid: 1d6bc042df1639a44ba9118fd813e7ed, type: 3}
      propertyPath: m_LocalScale.z
      value: 1.0276842
      objectReference: {fileID: 0}
    - target: {fileID: 4191143915447831117, guid: 1d6bc042df1639a44ba9118fd813e7ed, type: 3}
      propertyPath: m_IsActive
      value: 0
      objectReference: {fileID: 0}
    - target: {fileID: 4191143915447831119, guid: 1d6bc042df1639a44ba9118fd813e7ed, type: 3}
      propertyPath: m_Materials.Array.data[0]
      value: 
      objectReference: {fileID: 2100000, guid: fcce65cd2ef597844aea4ee4568d9e66, type: 2}
    m_RemovedComponents: []
  m_SourcePrefab: {fileID: 100100000, guid: 1d6bc042df1639a44ba9118fd813e7ed, type: 3}
--- !u!4 &3835457516572025072 stripped
Transform:
  m_CorrespondingSourceObject: {fileID: 4191143914712927399, guid: 1d6bc042df1639a44ba9118fd813e7ed, type: 3}
  m_PrefabInstance: {fileID: 1086395987450244183}
  m_PrefabAsset: {fileID: 0}
--- !u!1001 &7700851076220179397
PrefabInstance:
  m_ObjectHideFlags: 0
  serializedVersion: 2
  m_Modification:
    m_TransformParent: {fileID: 3835457516572025072}
    m_Modifications:
    - target: {fileID: 2280281035908407, guid: 68a94f7e74f30c74ea6204f2a5adfa1f, type: 3}
      propertyPath: m_LocalRotation.w
      value: 0.9999992
      objectReference: {fileID: 0}
    - target: {fileID: 2280281035908407, guid: 68a94f7e74f30c74ea6204f2a5adfa1f, type: 3}
      propertyPath: m_LocalRotation.x
      value: 0
      objectReference: {fileID: 0}
    - target: {fileID: 2280281035908407, guid: 68a94f7e74f30c74ea6204f2a5adfa1f, type: 3}
      propertyPath: m_LocalRotation.y
      value: -0
      objectReference: {fileID: 0}
    - target: {fileID: 2280281035908407, guid: 68a94f7e74f30c74ea6204f2a5adfa1f, type: 3}
      propertyPath: m_LocalRotation.z
      value: -0.0012693289
      objectReference: {fileID: 0}
    - target: {fileID: 2280281035908407, guid: 68a94f7e74f30c74ea6204f2a5adfa1f, type: 3}
      propertyPath: m_LocalEulerAnglesHint.x
      value: 0
      objectReference: {fileID: 0}
    - target: {fileID: 2280281035908407, guid: 68a94f7e74f30c74ea6204f2a5adfa1f, type: 3}
      propertyPath: m_LocalEulerAnglesHint.y
      value: 0
      objectReference: {fileID: 0}
    - target: {fileID: 2280281035908407, guid: 68a94f7e74f30c74ea6204f2a5adfa1f, type: 3}
      propertyPath: m_LocalEulerAnglesHint.z
      value: 0
      objectReference: {fileID: 0}
    - target: {fileID: 33310451422509490, guid: 68a94f7e74f30c74ea6204f2a5adfa1f, type: 3}
      propertyPath: m_LocalRotation.w
      value: 0.7071068
      objectReference: {fileID: 0}
    - target: {fileID: 33310451422509490, guid: 68a94f7e74f30c74ea6204f2a5adfa1f, type: 3}
      propertyPath: m_LocalRotation.x
      value: 0
      objectReference: {fileID: 0}
    - target: {fileID: 33310451422509490, guid: 68a94f7e74f30c74ea6204f2a5adfa1f, type: 3}
      propertyPath: m_LocalRotation.y
      value: -0
      objectReference: {fileID: 0}
    - target: {fileID: 33310451422509490, guid: 68a94f7e74f30c74ea6204f2a5adfa1f, type: 3}
      propertyPath: m_LocalRotation.z
      value: -0.7071068
      objectReference: {fileID: 0}
    - target: {fileID: 33310451422509490, guid: 68a94f7e74f30c74ea6204f2a5adfa1f, type: 3}
      propertyPath: m_LocalEulerAnglesHint.x
      value: 0
      objectReference: {fileID: 0}
    - target: {fileID: 33310451422509490, guid: 68a94f7e74f30c74ea6204f2a5adfa1f, type: 3}
      propertyPath: m_LocalEulerAnglesHint.z
      value: 0
      objectReference: {fileID: 0}
    - target: {fileID: 432384960226007961, guid: 68a94f7e74f30c74ea6204f2a5adfa1f, type: 3}
      propertyPath: m_LocalPosition.y
      value: 1.4926841
      objectReference: {fileID: 0}
    - target: {fileID: 432384960226007961, guid: 68a94f7e74f30c74ea6204f2a5adfa1f, type: 3}
      propertyPath: m_LocalRotation.w
      value: 1
      objectReference: {fileID: 0}
    - target: {fileID: 432384960226007961, guid: 68a94f7e74f30c74ea6204f2a5adfa1f, type: 3}
      propertyPath: m_LocalRotation.x
      value: 0
      objectReference: {fileID: 0}
    - target: {fileID: 432384960226007961, guid: 68a94f7e74f30c74ea6204f2a5adfa1f, type: 3}
      propertyPath: m_LocalEulerAnglesHint.x
      value: 0
      objectReference: {fileID: 0}
    - target: {fileID: 853639632718847455, guid: 68a94f7e74f30c74ea6204f2a5adfa1f, type: 3}
      propertyPath: m_LocalRotation.w
      value: -6.1232296e-17
      objectReference: {fileID: 0}
    - target: {fileID: 853639632718847455, guid: 68a94f7e74f30c74ea6204f2a5adfa1f, type: 3}
      propertyPath: m_LocalRotation.x
      value: 0.9999992
      objectReference: {fileID: 0}
    - target: {fileID: 853639632718847455, guid: 68a94f7e74f30c74ea6204f2a5adfa1f, type: 3}
      propertyPath: m_LocalRotation.y
      value: 0.0012693289
      objectReference: {fileID: 0}
    - target: {fileID: 853639632718847455, guid: 68a94f7e74f30c74ea6204f2a5adfa1f, type: 3}
      propertyPath: m_LocalRotation.z
      value: -7.772398e-20
      objectReference: {fileID: 0}
    - target: {fileID: 853639632718847455, guid: 68a94f7e74f30c74ea6204f2a5adfa1f, type: 3}
      propertyPath: m_LocalEulerAnglesHint.x
      value: -180
      objectReference: {fileID: 0}
    - target: {fileID: 853639632718847455, guid: 68a94f7e74f30c74ea6204f2a5adfa1f, type: 3}
      propertyPath: m_LocalEulerAnglesHint.y
      value: 0
      objectReference: {fileID: 0}
    - target: {fileID: 853639632718847455, guid: 68a94f7e74f30c74ea6204f2a5adfa1f, type: 3}
      propertyPath: m_LocalEulerAnglesHint.z
      value: -0.14501953
      objectReference: {fileID: 0}
    - target: {fileID: 2025803510903875464, guid: 68a94f7e74f30c74ea6204f2a5adfa1f, type: 3}
      propertyPath: m_LocalRotation.w
      value: 0.79995334
      objectReference: {fileID: 0}
    - target: {fileID: 2025803510903875464, guid: 68a94f7e74f30c74ea6204f2a5adfa1f, type: 3}
      propertyPath: m_LocalRotation.x
      value: 0
      objectReference: {fileID: 0}
    - target: {fileID: 2025803510903875464, guid: 68a94f7e74f30c74ea6204f2a5adfa1f, type: 3}
      propertyPath: m_LocalRotation.y
      value: 0
      objectReference: {fileID: 0}
    - target: {fileID: 2025803510903875464, guid: 68a94f7e74f30c74ea6204f2a5adfa1f, type: 3}
      propertyPath: m_LocalRotation.z
      value: 0.6000622
      objectReference: {fileID: 0}
    - target: {fileID: 2025803510903875464, guid: 68a94f7e74f30c74ea6204f2a5adfa1f, type: 3}
      propertyPath: m_LocalEulerAnglesHint.x
      value: 0
      objectReference: {fileID: 0}
    - target: {fileID: 2025803510903875464, guid: 68a94f7e74f30c74ea6204f2a5adfa1f, type: 3}
      propertyPath: m_LocalEulerAnglesHint.z
      value: 0
      objectReference: {fileID: 0}
    - target: {fileID: 3464923447843867129, guid: 68a94f7e74f30c74ea6204f2a5adfa1f, type: 3}
      propertyPath: m_LocalRotation.w
      value: 6.057889e-17
      objectReference: {fileID: 0}
    - target: {fileID: 3464923447843867129, guid: 68a94f7e74f30c74ea6204f2a5adfa1f, type: 3}
      propertyPath: m_LocalRotation.x
      value: 0.98932827
      objectReference: {fileID: 0}
    - target: {fileID: 3464923447843867129, guid: 68a94f7e74f30c74ea6204f2a5adfa1f, type: 3}
      propertyPath: m_LocalRotation.y
      value: 0.14570397
      objectReference: {fileID: 0}
    - target: {fileID: 3464923447843867129, guid: 68a94f7e74f30c74ea6204f2a5adfa1f, type: 3}
      propertyPath: m_LocalRotation.z
      value: 8.9217956e-18
      objectReference: {fileID: 0}
    - target: {fileID: 3464923447843867129, guid: 68a94f7e74f30c74ea6204f2a5adfa1f, type: 3}
      propertyPath: m_LocalEulerAnglesHint.x
      value: 0
      objectReference: {fileID: 0}
    - target: {fileID: 3464923447843867129, guid: 68a94f7e74f30c74ea6204f2a5adfa1f, type: 3}
      propertyPath: m_LocalEulerAnglesHint.y
      value: 0
      objectReference: {fileID: 0}
    - target: {fileID: 3464923447843867129, guid: 68a94f7e74f30c74ea6204f2a5adfa1f, type: 3}
      propertyPath: m_LocalEulerAnglesHint.z
      value: 0
      objectReference: {fileID: 0}
    - target: {fileID: 6057440592441346296, guid: 68a94f7e74f30c74ea6204f2a5adfa1f, type: 3}
      propertyPath: m_LocalPosition.x
      value: 0
      objectReference: {fileID: 0}
    - target: {fileID: 6057440592441346296, guid: 68a94f7e74f30c74ea6204f2a5adfa1f, type: 3}
      propertyPath: m_LocalPosition.y
      value: 0.8156577
      objectReference: {fileID: 0}
    - target: {fileID: 6057440592441346296, guid: 68a94f7e74f30c74ea6204f2a5adfa1f, type: 3}
      propertyPath: m_LocalPosition.z
      value: 0.7286538
      objectReference: {fileID: 0}
    - target: {fileID: 6057440592441346296, guid: 68a94f7e74f30c74ea6204f2a5adfa1f, type: 3}
      propertyPath: m_LocalRotation.w
      value: 1
      objectReference: {fileID: 0}
    - target: {fileID: 6057440592441346296, guid: 68a94f7e74f30c74ea6204f2a5adfa1f, type: 3}
      propertyPath: m_LocalRotation.x
      value: 0
      objectReference: {fileID: 0}
    - target: {fileID: 6057440592441346296, guid: 68a94f7e74f30c74ea6204f2a5adfa1f, type: 3}
      propertyPath: m_LocalEulerAnglesHint.x
      value: 0
      objectReference: {fileID: 0}
    - target: {fileID: 6985470953746262691, guid: 68a94f7e74f30c74ea6204f2a5adfa1f, type: 3}
      propertyPath: m_RootOrder
      value: 1
      objectReference: {fileID: 0}
    - target: {fileID: 6985470953746262691, guid: 68a94f7e74f30c74ea6204f2a5adfa1f, type: 3}
      propertyPath: m_LocalPosition.x
      value: 0
      objectReference: {fileID: 0}
    - target: {fileID: 6985470953746262691, guid: 68a94f7e74f30c74ea6204f2a5adfa1f, type: 3}
      propertyPath: m_LocalPosition.y
      value: -0.114
      objectReference: {fileID: 0}
    - target: {fileID: 6985470953746262691, guid: 68a94f7e74f30c74ea6204f2a5adfa1f, type: 3}
      propertyPath: m_LocalPosition.z
      value: 0
      objectReference: {fileID: 0}
    - target: {fileID: 6985470953746262691, guid: 68a94f7e74f30c74ea6204f2a5adfa1f, type: 3}
      propertyPath: m_LocalRotation.w
      value: 1
      objectReference: {fileID: 0}
    - target: {fileID: 6985470953746262691, guid: 68a94f7e74f30c74ea6204f2a5adfa1f, type: 3}
      propertyPath: m_LocalRotation.x
      value: 0
      objectReference: {fileID: 0}
    - target: {fileID: 6985470953746262691, guid: 68a94f7e74f30c74ea6204f2a5adfa1f, type: 3}
      propertyPath: m_LocalRotation.y
      value: 0
      objectReference: {fileID: 0}
    - target: {fileID: 6985470953746262691, guid: 68a94f7e74f30c74ea6204f2a5adfa1f, type: 3}
      propertyPath: m_LocalRotation.z
      value: 0
      objectReference: {fileID: 0}
    - target: {fileID: 6985470953746262691, guid: 68a94f7e74f30c74ea6204f2a5adfa1f, type: 3}
      propertyPath: m_LocalEulerAnglesHint.x
      value: 0
      objectReference: {fileID: 0}
    - target: {fileID: 6985470953746262691, guid: 68a94f7e74f30c74ea6204f2a5adfa1f, type: 3}
      propertyPath: m_LocalEulerAnglesHint.y
      value: 0
      objectReference: {fileID: 0}
    - target: {fileID: 6985470953746262691, guid: 68a94f7e74f30c74ea6204f2a5adfa1f, type: 3}
      propertyPath: m_LocalEulerAnglesHint.z
      value: 0
      objectReference: {fileID: 0}
    - target: {fileID: 7591278292417222027, guid: 68a94f7e74f30c74ea6204f2a5adfa1f, type: 3}
      propertyPath: m_LocalRotation.w
      value: -5.8006755e-17
      objectReference: {fileID: 0}
    - target: {fileID: 7591278292417222027, guid: 68a94f7e74f30c74ea6204f2a5adfa1f, type: 3}
      propertyPath: m_LocalRotation.x
      value: 0.98932827
      objectReference: {fileID: 0}
    - target: {fileID: 7591278292417222027, guid: 68a94f7e74f30c74ea6204f2a5adfa1f, type: 3}
      propertyPath: m_LocalRotation.y
      value: 0.14570397
      objectReference: {fileID: 0}
    - target: {fileID: 7591278292417222027, guid: 68a94f7e74f30c74ea6204f2a5adfa1f, type: 3}
      propertyPath: m_LocalRotation.z
      value: -2.6386572e-17
      objectReference: {fileID: 0}
    - target: {fileID: 7591278292417222027, guid: 68a94f7e74f30c74ea6204f2a5adfa1f, type: 3}
      propertyPath: m_LocalEulerAnglesHint.x
      value: 0
      objectReference: {fileID: 0}
    - target: {fileID: 7591278292417222027, guid: 68a94f7e74f30c74ea6204f2a5adfa1f, type: 3}
      propertyPath: m_LocalEulerAnglesHint.y
      value: 0
      objectReference: {fileID: 0}
    - target: {fileID: 7591278292417222027, guid: 68a94f7e74f30c74ea6204f2a5adfa1f, type: 3}
      propertyPath: m_LocalEulerAnglesHint.z
      value: 0
      objectReference: {fileID: 0}
    - target: {fileID: 7762710967106580505, guid: 68a94f7e74f30c74ea6204f2a5adfa1f, type: 3}
      propertyPath: m_Name
      value: zombie_giant_prefab
      objectReference: {fileID: 0}
    - target: {fileID: 8076533555800297564, guid: 68a94f7e74f30c74ea6204f2a5adfa1f, type: 3}
      propertyPath: m_LocalRotation.w
      value: -4.8983015e-17
      objectReference: {fileID: 0}
    - target: {fileID: 8076533555800297564, guid: 68a94f7e74f30c74ea6204f2a5adfa1f, type: 3}
      propertyPath: m_LocalRotation.x
      value: 0.79995334
      objectReference: {fileID: 0}
    - target: {fileID: 8076533555800297564, guid: 68a94f7e74f30c74ea6204f2a5adfa1f, type: 3}
      propertyPath: m_LocalRotation.y
      value: -0.6000622
      objectReference: {fileID: 0}
    - target: {fileID: 8076533555800297564, guid: 68a94f7e74f30c74ea6204f2a5adfa1f, type: 3}
      propertyPath: m_LocalRotation.z
      value: 3.674321e-17
      objectReference: {fileID: 0}
    - target: {fileID: 8076533555800297564, guid: 68a94f7e74f30c74ea6204f2a5adfa1f, type: 3}
      propertyPath: m_LocalEulerAnglesHint.x
      value: -180
      objectReference: {fileID: 0}
    - target: {fileID: 8644654395725638671, guid: 68a94f7e74f30c74ea6204f2a5adfa1f, type: 3}
      propertyPath: m_LocalRotation.w
      value: -3.8146734e-19
      objectReference: {fileID: 0}
    - target: {fileID: 8644654395725638671, guid: 68a94f7e74f30c74ea6204f2a5adfa1f, type: 3}
      propertyPath: m_LocalRotation.x
      value: 0.703985
      objectReference: {fileID: 0}
    - target: {fileID: 8644654395725638671, guid: 68a94f7e74f30c74ea6204f2a5adfa1f, type: 3}
      propertyPath: m_LocalRotation.y
      value: 0.71021485
      objectReference: {fileID: 0}
    - target: {fileID: 8644654395725638671, guid: 68a94f7e74f30c74ea6204f2a5adfa1f, type: 3}
      propertyPath: m_LocalRotation.z
      value: 8.6594766e-17
      objectReference: {fileID: 0}
    - target: {fileID: 8644654395725638671, guid: 68a94f7e74f30c74ea6204f2a5adfa1f, type: 3}
      propertyPath: m_LocalEulerAnglesHint.x
      value: 0
      objectReference: {fileID: 0}
    - target: {fileID: 8644654395725638671, guid: 68a94f7e74f30c74ea6204f2a5adfa1f, type: 3}
      propertyPath: m_LocalEulerAnglesHint.y
      value: 0
      objectReference: {fileID: 0}
    - target: {fileID: 8644654395725638671, guid: 68a94f7e74f30c74ea6204f2a5adfa1f, type: 3}
      propertyPath: m_LocalEulerAnglesHint.z
      value: 0
      objectReference: {fileID: 0}
    - target: {fileID: 9073859837544385893, guid: 68a94f7e74f30c74ea6204f2a5adfa1f, type: 3}
      propertyPath: m_LocalRotation.w
      value: 0.99299455
      objectReference: {fileID: 0}
    - target: {fileID: 9073859837544385893, guid: 68a94f7e74f30c74ea6204f2a5adfa1f, type: 3}
      propertyPath: m_LocalRotation.x
      value: 0
      objectReference: {fileID: 0}
    - target: {fileID: 9073859837544385893, guid: 68a94f7e74f30c74ea6204f2a5adfa1f, type: 3}
      propertyPath: m_LocalRotation.y
      value: -0
      objectReference: {fileID: 0}
    - target: {fileID: 9073859837544385893, guid: 68a94f7e74f30c74ea6204f2a5adfa1f, type: 3}
      propertyPath: m_LocalRotation.z
      value: -0.118160404
      objectReference: {fileID: 0}
    - target: {fileID: 9073859837544385893, guid: 68a94f7e74f30c74ea6204f2a5adfa1f, type: 3}
      propertyPath: m_LocalEulerAnglesHint.x
      value: 0
      objectReference: {fileID: 0}
    - target: {fileID: 9073859837544385893, guid: 68a94f7e74f30c74ea6204f2a5adfa1f, type: 3}
      propertyPath: m_LocalEulerAnglesHint.y
      value: 0
      objectReference: {fileID: 0}
    - target: {fileID: 9073859837544385893, guid: 68a94f7e74f30c74ea6204f2a5adfa1f, type: 3}
      propertyPath: m_LocalEulerAnglesHint.z
      value: 0
      objectReference: {fileID: 0}
    - target: {fileID: 9211857603690620255, guid: 68a94f7e74f30c74ea6204f2a5adfa1f, type: 3}
      propertyPath: m_LocalRotation.w
      value: 0.99299455
      objectReference: {fileID: 0}
    - target: {fileID: 9211857603690620255, guid: 68a94f7e74f30c74ea6204f2a5adfa1f, type: 3}
      propertyPath: m_LocalRotation.x
      value: -3.8790345e-34
      objectReference: {fileID: 0}
    - target: {fileID: 9211857603690620255, guid: 68a94f7e74f30c74ea6204f2a5adfa1f, type: 3}
      propertyPath: m_LocalRotation.y
      value: -1.4470476e-17
      objectReference: {fileID: 0}
    - target: {fileID: 9211857603690620255, guid: 68a94f7e74f30c74ea6204f2a5adfa1f, type: 3}
      propertyPath: m_LocalRotation.z
      value: -0.118160404
      objectReference: {fileID: 0}
    - target: {fileID: 9211857603690620255, guid: 68a94f7e74f30c74ea6204f2a5adfa1f, type: 3}
      propertyPath: m_LocalEulerAnglesHint.x
      value: 0
      objectReference: {fileID: 0}
    - target: {fileID: 9211857603690620255, guid: 68a94f7e74f30c74ea6204f2a5adfa1f, type: 3}
      propertyPath: m_LocalEulerAnglesHint.y
      value: 0
      objectReference: {fileID: 0}
    - target: {fileID: 9211857603690620255, guid: 68a94f7e74f30c74ea6204f2a5adfa1f, type: 3}
      propertyPath: m_LocalEulerAnglesHint.z
      value: 0
      objectReference: {fileID: 0}
    m_RemovedComponents: []
  m_SourcePrefab: {fileID: 100100000, guid: 68a94f7e74f30c74ea6204f2a5adfa1f, type: 3}
--- !u!95 &1776323471942067130 stripped
Animator:
  m_CorrespondingSourceObject: {fileID: 8248394985351835775, guid: 68a94f7e74f30c74ea6204f2a5adfa1f, type: 3}
  m_PrefabInstance: {fileID: 7700851076220179397}
  m_PrefabAsset: {fileID: 0}
