%YAML 1.1
%TAG !u! tag:unity3d.com,2011:
--- !u!114 &11400000
MonoBehaviour:
  m_ObjectHideFlags: 0
  m_CorrespondingSourceObject: {fileID: 0}
  m_PrefabInstance: {fileID: 0}
  m_PrefabAsset: {fileID: 0}
  m_GameObject: {fileID: 0}
  m_Enabled: 1
  m_EditorHideFlags: 0
  m_Script: {fileID: 11500000, guid: 9898f0ebced24e59acc923ba70d5e8e2, type: 3}
  m_Name: assault_lv3
  m_EditorClassIdentifier: 
  enumValue: {fileID: 11400000, guid: 2a811b1bae239bc46b616db192f9ac60, type: 2}
  towerPrefab: {fileID: 3677258560958360516, guid: 8bd0ed326f471794184e36b66cae0df1, type: 3}
  displayName: assault_lv3
  description:
  - Line 1
  - Line 2
  - Line 3
  forSell: 0
  price: 150
  upgradeTowers:
  - {fileID: 11400000, guid: fa674afcb0486404690d06d4aa392dcf, type: 2}
  - {fileID: 11400000, guid: bf710fb59613dbe4cae2effad26cc6ef, type: 2}
  - {fileID: 11400000, guid: e00150b37dd784449a171a969595c91f, type: 2}
