%YAML 1.1
%TAG !u! tag:unity3d.com,2011:
--- !u!114 &11400000
MonoBehaviour:
  m_ObjectHideFlags: 0
  m_CorrespondingSourceObject: {fileID: 0}
  m_PrefabInstance: {fileID: 0}
  m_PrefabAsset: {fileID: 0}
  m_GameObject: {fileID: 0}
  m_Enabled: 1
  m_EditorHideFlags: 0
  m_Script: {fileID: 11500000, guid: 9898f0ebced24e59acc923ba70d5e8e2, type: 3}
  m_Name: assault_lv2
  m_EditorClassIdentifier: 
  enumValue: {fileID: 11400000, guid: 4b5674ca0cf8b694cb7f859702cc03bd, type: 2}
  towerPrefab: {fileID: 3677258560958360516, guid: 8c9abfb602e552a40a0d57e8ba05055c, type: 3}
  displayName: assault_lv2
  description:
  - Line 1
  - Line 2
  - Line 3
  forSell: 0
  price: 100
  upgradeTowers:
  - {fileID: 11400000, guid: fa14c98020ced3a43a2d051bd018b59f, type: 2}
  - {fileID: 11400000, guid: 6f88ff37a77455c4e93efbb882b47890, type: 2}
