%YAML 1.1
%TAG !u! tag:unity3d.com,2011:
--- !u!114 &11400000
MonoBehaviour:
  m_ObjectHideFlags: 0
  m_CorrespondingSourceObject: {fileID: 0}
  m_PrefabInstance: {fileID: 0}
  m_PrefabAsset: {fileID: 0}
  m_GameObject: {fileID: 0}
  m_Enabled: 0
  m_EditorHideFlags: 0
  m_Script: {fileID: 11500000, guid: d762b57491a6496e8bd22f9ae781b08a, type: 3}
  m_Name: New Mob Bounty SO
  m_EditorClassIdentifier: 
  mobBountyData:
  - entityType: 0
    reward: 5
  - entityType: 3
    reward: 5
  - entityType: 4
    reward: 10
  - entityType: 5
    reward: 20
